{
    "KPackageStructure": "KWin/WindowSwitcher",
    "KPlugin": {
        "Authors": [
            {
                "Email": "mgraesslin@kde.org",
                "Name": "Martin Gräßlin",
                "Name[ar]": "Martin Gräßlin",
                "Name[az]": "Martin Gräßlin",
                "Name[bg]": "Martin Gräßlin",
                "Name[ca@valencia]": "Martin Gräßlin",
                "Name[ca]": "Martin Gräßlin",
                "Name[cs]": "Martin Gräßlin",
                "Name[de]": "Martin Gräßlin",
                "Name[en_GB]": "Martin Gräßlin",
                "Name[eo]": "Martin Gräßlin",
                "Name[es]": "Martin Gräßlin",
                "Name[eu]": "Martin Gräßlin",
                "Name[fi]": "Martin Gräßlin",
                "Name[fr]": "Martin Gräßlin",
                "Name[gl]": "Martin Gräßlin",
                "Name[he]": "מרטין גרייסלין",
                "Name[hu]": "Martin Gräßlin",
                "Name[ia]": "Martin Gräßlin",
                "Name[id]": "Martin Gräßlin",
                "Name[is]": "Martin Gräßlin",
                "Name[it]": "Martin Gräßlin",
                "Name[ja]": "Martin Gräßlin",
                "Name[ka]": "მარტინ გრესსლინი",
                "Name[ko]": "Martin Gräßlin",
                "Name[lt]": "Martin Gräßlin",
                "Name[nl]": "Martin Gräßlin",
                "Name[nn]": "Martin Gräßlin",
                "Name[pl]": "Martin Gräßlin",
                "Name[pt]": "Martin Gräßlin",
                "Name[pt_BR]": "Martin Gräßlin",
                "Name[ro]": "Martin Gräßlin",
                "Name[ru]": "Martin Gräßlin",
                "Name[sk]": "Martin Gräßlin",
                "Name[sl]": "Martin Gräßlin",
                "Name[sv]": "Martin Gräßlin",
                "Name[tr]": "Martin Gräßlin",
                "Name[uk]": "Martin Gräßlin",
                "Name[vi]": "Martin Gräßlin",
                "Name[x-test]": "xxMartin Gräßlinxx",
                "Name[zh_CN]": "Martin Gräßlin",
                "Name[zh_TW]": "Martin Gräßlin"
            }
        ],
        "Description": "A compact window switcher layout",
        "Description[ar]": "مخطط مبدل نوافذ متراص",
        "Description[az]": "Yəğcam pəncərə dəyişdirici maketi",
        "Description[bg]": "Компактно оформление на програмата за превключване на прозорци",
        "Description[ca@valencia]": "Una disposició compacta del commutador de finestres",
        "Description[ca]": "Una disposició compacta del commutador de finestres",
        "Description[cs]": "Kompaktní rozvržení přepínače oken",
        "Description[de]": "Ein kompaktes Fensterwechsler-Layout",
        "Description[en_GB]": "A compact window switcher layout",
        "Description[eo]": "Kompakta fenestra ŝaltilo",
        "Description[es]": "Un esquema de selección de ventanas compacto",
        "Description[eu]": "Leiho-trukatzaile antolamendu trinko bat",
        "Description[fi]": "Tiivis ikkunavaihtoasettelu",
        "Description[fr]": "Une disposition synthétique pour le basculement de fenêtres",
        "Description[gl]": "Unha disposición compacta do selector de xanelas",
        "Description[he]": "פריסת מחליף חלונות מצומצמת",
        "Description[hu]": "Kompakt ablakváltó elrendezés",
        "Description[ia]": "Un disposition de commutator de fenestra compacte",
        "Description[id]": "Sebuah tataletak pengalih jendela yang ringkas",
        "Description[is]": "Gluggaskiptir með þéttri framsetningu",
        "Description[it]": "Una disposizione compatta del selettore delle finestre",
        "Description[ja]": "コンパクトなウィンドウスイッチャー",
        "Description[ka]": "ფანჯრების გადართვის კომპაქტური განლაგება",
        "Description[ko]": "소형 창 전환기 레이아웃",
        "Description[lt]": "Kompaktiškas langų perjungiklio išdėstymas",
        "Description[nl]": "Een compacte indeling van de vensterwisselaar",
        "Description[nn]": "Kompakt vindaugsbytar",
        "Description[pl]": "Zwarty przełącznik okien",
        "Description[pt]": "Uma disposição de mudança de janelas compacta",
        "Description[pt_BR]": "Uma layout compacto do seletor de janelas",
        "Description[ro]": "Aranjament compact pentru comutatorul de ferestre",
        "Description[ru]": "Компактный переключатель окон",
        "Description[sk]": "Kompaktné rozloženie prepínača okien",
        "Description[sl]": "Kompaktna razporeditev preklopa oken",
        "Description[sv]": "En kompakt layout för fönsterbyte",
        "Description[tr]": "Sıkışık bir pencere değiştirici yerleşimi",
        "Description[uk]": "Компактне компонування засобу перемикання вікон",
        "Description[vi]": "Bố cục gọn cho trình chuyển cửa sổ",
        "Description[x-test]": "xxA compact window switcher layoutxx",
        "Description[zh_CN]": "紧凑的窗口切换器布局",
        "Description[zh_TW]": "簡潔的視窗切換器佈局",
        "Icon": "preferences-system-windows-switcher-compact",
        "Id": "compact",
        "License": "GPL",
        "Name": "Compact",
        "Name[ar]": "متراصّ",
        "Name[az]": "Yığcam",
        "Name[bg]": "Компактно",
        "Name[ca@valencia]": "Compacte",
        "Name[ca]": "Compacte",
        "Name[cs]": "Kompaktní",
        "Name[de]": "Kompakt",
        "Name[en_GB]": "Compact",
        "Name[eo]": "Kompakta",
        "Name[es]": "Compacto",
        "Name[eu]": "Trinkoa",
        "Name[fi]": "Tiivis",
        "Name[fr]": "Synthétique",
        "Name[gl]": "Compacta",
        "Name[he]": "מצומצם",
        "Name[hu]": "Kompakt",
        "Name[ia]": "Compacte",
        "Name[id]": "Ringkas",
        "Name[is]": "Þétt",
        "Name[it]": "Compatto",
        "Name[ja]": "コンパクト",
        "Name[ka]": "დაპატარავება",
        "Name[ko]": "축소됨",
        "Name[nl]": "Compact",
        "Name[nn]": "Kompakt",
        "Name[pl]": "Zwarty",
        "Name[pt]": "Compacto",
        "Name[pt_BR]": "Compacto",
        "Name[ro]": "Compact",
        "Name[ru]": "Компактный",
        "Name[sk]": "Kompaktný",
        "Name[sl]": "Kompaktno",
        "Name[sv]": "Kompakt",
        "Name[tr]": "Kompakt",
        "Name[uk]": "Компактне",
        "Name[vi]": "Gọn",
        "Name[x-test]": "xxCompactxx",
        "Name[zh_CN]": "紧凑",
        "Name[zh_TW]": "簡潔"
    }
}
